# github.com:22 SSH-2.0-babeld-b2703c17
Warning: Permanently added the RSA host key for IP address '192.30.255.113' to the list of known hosts.
B: master
Running Sync
Fetching EnergyDataScienceNotes @ master
Fetching SubsurfaceMachineLearningNotes @ master
Fetching EnergyDataScienceExercises @ master
Fetching SubsurfaceMachineLearningExercises @ master
Checking out primary TOC @ master
Processing TOC for: EnergyDataScienceNotes
Processing TOC for: SubsurfaceMachineLearningNotes
Done
